;AdamsFamily II
M300 S440 P214
M300 S493 P214
M300 S1108 P214
M300 S1174 P214
M300 S0 P857
M300 S0 P214
M300 S493 P214
M300 S1108 P214
M300 S1244 P214
M300 S1318 P214
M300 S0 P857
M300 S0 P214
M300 S493 P214
M300 S1108 P214
M300 S1244 P214
M300 S1318 P214
M300 S0 P214
M300 S493 P214
M300 S1108 P214
M300 S1244 P214
M300 S1318 P214
M300 S0 P214
M300 S440 P214
M300 S493 P214
M300 S1108 P214
M300 S1174 P214
M300 S0 P857
M300 S0 P214
M300 S440 P214
M300 S493 P214
M300 S1108 P214
M300 S1174 P214
M300 S0 P857
M300 S0 P214
M300 S493 P214
M300 S1108 P214
M300 S1244 P214
M300 S1318 P214
M300 S0 P857
M300 S0 P214
M300 S493 P214
M300 S1108 P214
M300 S1244 P214
M300 S1318 P214
M300 S0 P214
M300 S493 P214
M300 S1108 P214
M300 S1244 P214
M300 S1318 P214
M300 S0 P214
M300 S440 P214
M300 S493 P214
M300 S1108 P214
M300 S1174 P214
M300 S0 P428
M300 S0 P53
M300 S880 P214
M300 S880 P214
M300 S0 P214
M300 S880 P107
M300 S0 P107
M300 S880 P107
M300 S0 P107
M300 S2349 P321
M300 S2959 P107
M300 S2349 P321
M300 S987 P107
M300 S1567 P321
M300 S2637 P107
M300 S0 P321
M300 S2093 P107
M300 S2217 P321
M300 S2637 P107
M300 S2217 P321
M300 S880 P107
M300 S1479 P321
M300 S2349 P107
M300 S0 P321
M300 S880 P107
M300 S2349 P321
M300 S2959 P107
M300 S2349 P321
M300 S987 P107
M300 S1567 P321
M300 S2637 P107
M300 S0 P321
M300 S2349 P107
M300 S2217 P321
M300 S880 P107
M300 S987 P321
M300 S2217 P107
M300 S2349 P428
M300 S0 P321
M300 S880 P107
M300 S2349 P321
M300 S2959 P107
M300 S2349 P321
M300 S987 P107
M300 S1567 P321
