;AliceDeejay
M300 S987 P238
M300 S0 P238
M300 S987 P238
M300 S1661 P238
M300 S0 P238
M300 S987 P238
M300 S0 P238
M300 S987 P238
M300 S0 P238
M300 S932 P238
M300 S0 P238
M300 S1479 P238
M300 S2959 P238
M300 S0 P119
M300 S2959 P238
M300 S0 P119
M300 S2489 P238
M300 S987 P238
M300 S0 P238
M300 S987 P238
M300 S1661 P238
M300 S0 P238
M300 S987 P238
M300 S0 P238
M300 S987 P238
M300 S0 P238
M300 S932 P238
M300 S0 P238
M300 S1479 P238
M300 S2637 P238
M300 S0 P119
M300 S2637 P238
M300 S0 P119
M300 S2489 P238
