;B5MainTheme
M300 S493 P666
M300 S1318 P1333
M300 S1567 P1333
M300 S1479 P1333
M300 S880 P1333
M300 S987 P1333
M300 S1567 P666
M300 S1567 P333
M300 S1567 P166
M300 S880 P166
M300 S987 P1333
M300 S1479 P1333
M300 S493 P1333
M300 S1174 P1333
M300 S1108 P1333
M300 S1318 P1333
M300 S1479 P1333
M300 S1174 P666
M300 S1174 P333
M300 S1174 P166
M300 S1318 P166
M300 S1479 P1333
