;victory
M300 S2349 P53
M300 S0 P53
M300 S2349 P53
M300 S0 P53
M300 S2349 P53
M300 S0 P53
M300 S2349 P428
M300 S932 P428
M300 S2093 P428
M300 S2349 P107
M300 S0 P214
M300 S2093 P107
M300 S2349 P857
M300 S880 P428
M300 S1567 P428
M300 S880 P428
M300 S1567 P107
M300 S0 P107
M300 S2093 P428
M300 S2093 P107
M300 S0 P107
M300 S987 P428
M300 S2093 P107
M300 S0 P107
M300 S987 P428
M300 S987 P107
M300 S0 P107
M300 S880 P428
M300 S1567 P428
M300 S1479 P428
M300 S1567 P107
M300 S0 P107
M300 S1318 P1714
M300 S880 P428
M300 S1567 P428
M300 S880 P428
M300 S1567 P107
M300 S0 P107
M300 S2093 P428
M300 S2093 P107
M300 S0 P107
M300 S987 P428
M300 S2093 P107
M300 S0 P107
M300 S987 P428
M300 S987 P107
M300 S0 P107
M300 S880 P428
M300 S1567 P428
M300 S880 P428
M300 S2093 P107
M300 S0 P107
M300 S2349 P1714

