G21        ;metric values
G90        ;absolute positioning
M82        ;set extruder to absolute mode
M107       ;start with the fan off
G28
G29
M84                         ;steppers off
G90                         ;absolute positioning